<<<<<<< HEAD
total 4
-rw-r--r-- 1 PDB-BMKG 197121 25 Oct 25 15:44 redme.txt.txt
-rw-r--r-- 1 PDB-BMKG 197121  0 Oct 25 15:44 text1.txt
-rw-r--r-- 1 PDB-BMKG 197121 95 Oct 25 15:44 text1change1.txt.txt
-rw-r--r-- 1 PDB-BMKG 197121 18 Oct 25 15:44 text2update2bischange1.txt.txt
-rw-r--r-- 1 PDB-BMKG 197121 52 Oct 25 15:44 text2update3.txt.txt
=======
test1 git training

update for cherrypick
>>>>>>> b57dd41 (update for cherrypick)
